{
  "json": {
  },
  "markdown": {
  },
  "toml": {
  },
  "includes": ["**/*.{json,md,toml}"],
  "excludes": [
    "**/*-lock.json"
  ],
  "plugins": [
    "https://plugins.dprint.dev/json-0.19.4.wasm",
    "https://plugins.dprint.dev/markdown-0.17.8.wasm",
    "https://plugins.dprint.dev/toml-0.6.3.wasm"
  ]
}
